,,,,
,,,,
,A,A,A,
,,,,
,,,,
WE,WE,WE,WE,WE
,A,A,A,
,,,,
,,,,
,,,,
,,,,
WE,WE,WE,WE,WE
,,,,
,,,,
,,,,
,,,,
,A,A,A,
WE,WE,WE,WE,WE
,,,,
,A,,,
,,A,,
,,,A,
,,,,
WE,WE,WE,WE,WE
,,,,
,,,A,
,,A,,
,A,,,
,,,,
WE,WE,WE,WE,WE
,,,,
,,,,
,T,T,T,
,,,,
,,,,
WE,WE,WE,WE,WE
,,,,
,,,,
,A,A,T,
,,,,
,,,,
WE,WE,WE,WE,WE
,,,,
,,,,
T,,A,,T
,,,,
,,,,
WE,WE,WE,WE,WE
,,,,
,,,,A
,,T,,
A,,,,
,,,,
WE,WE,WE,WE,WE
,,,,
,N,,,
,,PP,,
,,,N,
,,,,
WE,WE,WE,WE,WE
PB,,,,
,BC,,,
,,PB,,
,,,BC,
,,,,PB
WE,WE,WE,WE,WE
B,,,,T
,B,,O,
,,O,,
,O,,B,
T,,,,B
WE,WE,WE,WE,WE
T,T,T,T,T
,,,,
O,O,O,O,O
,,,,
A,A,A,A,A
WE,WE,WE,WE,WE
,,,,
,,,,
,,,,
,,,,
,,,,
WE,WE,WE,WE,WE