# MagicaVoxel @ Ephtracy

# material
mtllib butter.mtl
usemtl palette

# normals
vn -1 0 0
vn 1 0 0
vn 0 0 1
vn 0 0 -1
vn 0 -1 0
vn 0 1 0

# texcoords
vt 0.00195313 0.5
vt 0.0605469 0.5
vt 0.845703 0.5

# verts
v -5.5 0 5.5
v -5.5 0 -5.5
v -5.5 6 5.5
v -5.5 6 -5.5
v -4.5 6 4.5
v -4.5 6 -4.5
v -4.5 11 -2.5
v -4.5 11 -4.5
v -4.5 12 -1.5
v -4.5 12 -2.5
v -4.5 13 4.5
v -4.5 13 -1.5
v -3.5 10 -4.5
v -3.5 10 -5.5
v -3.5 11 -4.5
v -3.5 13 -4.5
v -3.5 13 -5.5
v -2.5 11 -2.5
v -2.5 11 -4.5
v -2.5 12 -2.5
v -2.5 12 -4.5
v -1.5 12 -1.5
v -1.5 12 -4.5
v -1.5 13 -1.5
v -1.5 13 -4.5
v 1.5 10 -4.5
v 1.5 10 -5.5
v 1.5 13 -4.5
v 1.5 13 -5.5
v -0.5 10 -4.5
v -0.5 10 -5.5
v -0.5 13 -4.5
v -0.5 13 -5.5
v 4.5 6 4.5
v 4.5 6 -4.5
v 4.5 10 -4.5
v 4.5 10 -5.5
v 4.5 13 4.5
v 4.5 13 -4.5
v 4.5 13 -5.5
v 5.5 0 5.5
v 5.5 0 -5.5
v 5.5 6 5.5
v 5.5 6 -5.5
v -5.5 0 5.5
v -5.5 6 5.5
v 5.5 0 5.5
v 5.5 6 5.5
v -4.5 6 4.5
v -4.5 13 4.5
v 4.5 6 4.5
v 4.5 13 4.5
v -3.5 11 -4.5
v -3.5 13 -4.5
v -2.5 11 -4.5
v -2.5 12 -4.5
v -1.5 12 -4.5
v -1.5 13 -4.5
v -4.5 12 -1.5
v -4.5 13 -1.5
v -1.5 12 -1.5
v -1.5 13 -1.5
v -4.5 11 -2.5
v -4.5 12 -2.5
v -2.5 11 -2.5
v -2.5 12 -2.5
v -4.5 6 -4.5
v -4.5 11 -4.5
v -3.5 10 -4.5
v -3.5 11 -4.5
v -0.5 10 -4.5
v -0.5 13 -4.5
v 1.5 10 -4.5
v 1.5 13 -4.5
v 4.5 6 -4.5
v 4.5 10 -4.5
v -5.5 0 -5.5
v -5.5 6 -5.5
v -3.5 10 -5.5
v -3.5 13 -5.5
v -2.5 11 -5.5
v -2.5 12 -5.5
v -1.5 11 -5.5
v -1.5 12 -5.5
v -0.5 10 -5.5
v -0.5 13 -5.5
v 1.5 10 -5.5
v 1.5 13 -5.5
v 2.5 11 -5.5
v 2.5 12 -5.5
v 3.5 11 -5.5
v 3.5 12 -5.5
v 4.5 10 -5.5
v 4.5 13 -5.5
v 5.5 0 -5.5
v 5.5 6 -5.5
v -5.5 0 5.5
v 5.5 0 5.5
v -5.5 0 -5.5
v 5.5 0 -5.5
v -3.5 10 -4.5
v -0.5 10 -4.5
v 1.5 10 -4.5
v 4.5 10 -4.5
v -3.5 10 -5.5
v -0.5 10 -5.5
v 1.5 10 -5.5
v 4.5 10 -5.5
v -5.5 6 5.5
v 5.5 6 5.5
v -4.5 6 4.5
v 4.5 6 4.5
v -4.5 6 -4.5
v 4.5 6 -4.5
v -5.5 6 -5.5
v 5.5 6 -5.5
v -4.5 11 -2.5
v -2.5 11 -2.5
v -4.5 11 -4.5
v -3.5 11 -4.5
v -2.5 11 -4.5
v -4.5 12 -1.5
v -1.5 12 -1.5
v -4.5 12 -2.5
v -2.5 12 -2.5
v -2.5 12 -4.5
v -1.5 12 -4.5
v -4.5 13 4.5
v 4.5 13 4.5
v -4.5 13 -1.5
v -1.5 13 -1.5
v -3.5 13 -4.5
v -1.5 13 -4.5
v -0.5 13 -4.5
v 1.5 13 -4.5
v 4.5 13 -4.5
v -3.5 13 -5.5
v -0.5 13 -5.5
v 1.5 13 -5.5
v 4.5 13 -5.5

# faces
f 3/1/1 2/1/1 1/1/1
f 4/1/1 2/1/1 3/1/1
f 7/3/1 6/3/1 5/3/1
f 8/3/1 6/3/1 7/3/1
f 9/3/1 7/3/1 5/3/1
f 10/3/1 7/3/1 9/3/1
f 11/3/1 9/3/1 5/3/1
f 12/3/1 9/3/1 11/3/1
f 15/1/1 14/1/1 13/1/1
f 16/1/1 14/1/1 15/1/1
f 17/1/1 14/1/1 16/1/1
f 20/3/1 19/3/1 18/3/1
f 21/3/1 19/3/1 20/3/1
f 24/3/1 23/3/1 22/3/1
f 25/3/1 23/3/1 24/3/1
f 28/1/1 27/1/1 26/1/1
f 29/1/1 27/1/1 28/1/1
f 30/1/2 31/1/2 32/1/2
f 32/1/2 31/1/2 33/1/2
f 34/3/2 35/3/2 36/3/2
f 34/3/2 36/3/2 38/3/2
f 36/1/2 37/1/2 39/1/2
f 38/3/2 36/3/2 39/3/2
f 39/1/2 37/1/2 40/1/2
f 41/1/2 42/1/2 43/1/2
f 43/1/2 42/1/2 44/1/2
f 47/1/3 46/1/3 45/1/3
f 48/1/3 46/1/3 47/1/3
f 51/3/3 50/3/3 49/3/3
f 52/3/3 50/3/3 51/3/3
f 55/1/3 54/1/3 53/1/3
f 56/1/3 54/1/3 55/1/3
f 57/1/3 54/1/3 56/1/3
f 58/1/3 54/1/3 57/1/3
f 59/3/4 60/3/4 61/3/4
f 61/3/4 60/3/4 62/3/4
f 63/3/4 64/3/4 65/3/4
f 65/3/4 64/3/4 66/3/4
f 67/3/4 68/3/4 69/3/4
f 69/3/4 68/3/4 70/3/4
f 67/3/4 69/3/4 71/3/4
f 67/3/4 71/3/4 73/3/4
f 71/3/4 72/3/4 73/3/4
f 73/3/4 72/3/4 74/3/4
f 67/3/4 73/3/4 75/3/4
f 75/3/4 73/3/4 76/3/4
f 79/1/4 80/1/4 81/1/4
f 81/1/4 80/1/4 82/1/4
f 79/1/4 81/1/4 83/1/4
f 81/2/4 82/2/4 83/2/4
f 82/1/4 80/1/4 84/1/4
f 83/2/4 82/2/4 84/2/4
f 79/1/4 83/1/4 85/1/4
f 83/1/4 84/1/4 85/1/4
f 84/1/4 80/1/4 86/1/4
f 85/1/4 84/1/4 86/1/4
f 87/1/4 88/1/4 89/1/4
f 89/1/4 88/1/4 90/1/4
f 87/1/4 89/1/4 91/1/4
f 89/2/4 90/2/4 91/2/4
f 90/1/4 88/1/4 92/1/4
f 91/2/4 90/2/4 92/2/4
f 87/1/4 91/1/4 93/1/4
f 91/1/4 92/1/4 93/1/4
f 92/1/4 88/1/4 94/1/4
f 93/1/4 92/1/4 94/1/4
f 77/1/4 78/1/4 95/1/4
f 95/1/4 78/1/4 96/1/4
f 99/1/5 98/1/5 97/1/5
f 100/1/5 98/1/5 99/1/5
f 105/1/5 102/1/5 101/1/5
f 106/1/5 102/1/5 105/1/5
f 107/1/5 104/1/5 103/1/5
f 108/1/5 104/1/5 107/1/5
f 109/1/6 110/1/6 111/1/6
f 111/1/6 110/1/6 112/1/6
f 109/1/6 111/1/6 113/1/6
f 112/1/6 110/1/6 114/1/6
f 109/1/6 113/1/6 115/1/6
f 113/1/6 114/1/6 115/1/6
f 114/1/6 110/1/6 116/1/6
f 115/1/6 114/1/6 116/1/6
f 117/3/6 118/3/6 119/3/6
f 119/3/6 118/3/6 120/3/6
f 120/3/6 118/3/6 121/3/6
f 122/3/6 123/3/6 124/3/6
f 124/3/6 123/3/6 125/3/6
f 125/3/6 123/3/6 126/3/6
f 126/3/6 123/3/6 127/3/6
f 128/3/6 129/3/6 130/3/6
f 130/3/6 129/3/6 131/3/6
f 131/3/6 129/3/6 133/3/6
f 133/3/6 129/3/6 134/3/6
f 134/3/6 129/3/6 135/3/6
f 135/3/6 129/3/6 136/3/6
f 132/1/6 133/1/6 137/1/6
f 133/1/6 134/1/6 137/1/6
f 137/1/6 134/1/6 138/1/6
f 135/1/6 136/1/6 139/1/6
f 139/1/6 136/1/6 140/1/6
